DNI,SERIAL,PASSWORD,UUDI,INVALID_DATA
11607925-9,A030596606,DRaATgr49piUfD,a055467a-cfcb-43e1-b360-1e0764870405,
18925797-K,514914806,sKzzS3aSYHxyCN,a4c36fd0-48fc-410a-9b69-0090755f8bdd,A030812277
12178253-7,A024537361,2JycbkZoFwjr42,1f7da069-9179-5d6e-9eb1-60497870920c,123dasdas23
19412247-0,,MGfvmV23kVhAtF,964d61d8-32c6-4527-b0db-990911adcae2,110377768
5883027-5,,LbLBt8ePzHzYL7,f75d1f79-8ab7-5e41-bfa9-d51e7beb7f8d,A017044112
